Nome,Data de Nascimento,Nome do responsável,Empresa,telefone,RG do aluno,CPF do responsável
Brayan Sampaio do Nascimento,09/01/2015,,,,,
Enzo Gabriel Santos Barbosa,23/02/2015,,,,,
Heloisa Souza dos Santos,20/04/2015,,,,,
Ivã Lima Amaral Filho,28/05/2015 ,,,,,
Kauan Casais Santos Reis,10/09/2014,,,,,
Laura Lopes de Souza Ferreira,21/05/2015,,,,,
Luciano Queirós Novais,21/03/2015,,,,,
Bernardo Lourenço Mikulski,25/08/2014,,,,,
Davi Luiz Pinheiro dos Santos,18/01/2015,,,,,
Emanuelle Barreto Carvalho,20/10/2014,,,,,
Gustavo de Barros Rocha,05/10/2014,,,,,
Jaiane Vitória Almeida da Cruz Souza,12/03/2015,,,,,
Maria Eduarda do Espírito Santo Miranda,12/03/2015,,,,,
Maria Júlia Silva Brito,07/07/2014,,,,,
Pedro Abraão dos Santos de Santana,07/07/2015,,,,,
Samuel de Jesus Gonzaga Duarte,09/06/14,,,,,
Sophia Avelino de Lima,16/12/2015,,,,,
Victória Gracielle Lima de Souza,19/11/2014,,,,,
Beatriz de Souza Conde,25/08/2013,,,,,
Ester Trindade Santos,14/06/14,,,,,
Guilherme Sancho dos Santos,21/04/2014,,,,,
Rahdassa Kauane Santana Oliveira,26/01/2014,,,,,
Alessandro Hetor de Jesus Soares,11/03/2014,,,,,
Beatriz Ferreira Trindade,11/03/2004,,,,,
Elem Carolaine Silva Santos,28/05/2013,,,,,
Enzo Guilherme dos Santos,05/06/2014,,,,,
Ian Leite Lisboa,19/04/2014,,,,,
Júlia Alves Doarte,19/01/2014,,,,,
Mariana Costa Menezes,03/11/2013,,,,,
Pedro Henrique Borges de Jesus,29/09/2013,,,,,
Pietro Paulo Lima Araújo,08/03/2014,,,,,
Thalys Fraga de Lima,24/12/2013,,,,,
Wallace Guilherme Carneiro Santana,03/01/2014,,,,,
Ana Micaella Tavares de Jesus,01/06/2013 ,,,,,
Davi Augusto Paranaguá dos Santos,07/07/2013,,,,,
Deivson Araujo de Lima,25/06/2012,,,,,
Fabiele Silva da Conceição,11/06/2012,,,,,
Gabriel Amaral dos Santos Moura,04/04/2013,,,,,
Lyanne Magalhães da Mata Santos,01/07/2012,,,,,
Maria Clara Melo dos Anjos Ferreira,06/06/12,,,,,
Sophia Bastos de Oliveira,07/02/2013,,,,,
Abraão dos Santos Braga,10/06/2012,,,,,
Arthur Gomes Peixoto,29/06/2013,,,,,
Arthur Rogério Cavalcante de Assunção,26/08/2013,,,,,
Erick Jeovane Jesus da Costa,16/01/2013,,,,,
Isabella Santana Santos Bomfim,25/06/2013,,,,,
Isaque dos Santos Silva,29/08/2012,,,,,
Maria Luiza Santos da Silva,29/01/2013,,,,,
Marlon William de Souza Borges,21/12/2012,,,,,
Narlan Machado Souza,18/01/2013,,,,,
Nycollas dos Santos Oliveira,28/09/2012,,,,,
Pietra Santos Conceição,23/08/2013,,,,,
Rackell dos Santos Moreira,11/04/2013,,,,,
Wesley Matheus Souza Amorim,26/09/2012,,,,,
Davi Almeida do Carmo,23/11/2011,,,,,
David Morais da Silva Souza,10/11/2011,,,,,
Enzo Lima Melo,09/09/2011 ,,,,,
Evelyn Ayla de Souza Ferreira,22/02/2012,,,,,
Evellyn Vitória Oliveira Silva,09/09/2011,,,,,
Gabriel Araújo Lobo,24/02/2012,,,,,
Ilennya Magalhães da Mata Santos,30/07/2011,,,,,
Lucas da Silva Lima,17/08/2011,,,,,
Melissa Santos da Silva Arruda,01/03/2012,,,,,
Neemias Regos das Merces,24/01/2012  ,,,,,
Rayana Vitória Silva Damasceno,15/06/2012,,,,,
Andressa Vitória Dias de Oliveira,13/07/2012,,,,,
Arthur Barreto Silva,28/12/2011,,,,,
David Silva Santos,04/11/2011,,,,,
David Ruan Rosa Souza,09/03/2012,,,,,
Edson Douglas Souza do Nascimento,26/02/2012,,,,,
Emanuel de Jesus Nascimento,26/05/2012,,,,,
Enzo Micael Simas Barbosa,24/02/2012,,,,,
Esther Hadassa dos Santos de Oliveira,09/02/12,,,,,
Isabella Andrade Pinheiro,02/092012,,,,,
João Paulo Tavares Cardoso,21/102011 ,,,,,
Laíssa Bulcão Kayanoki,15/01/2012,,,,,
Ludmyla da Paixão de Brito Espírito Santo,19/09/2011,,,,,
Maria Luiza Pereira Santos,13/03/2012,,,,,
Pedro Gabriel Reis da Silva,19/08/2011,,,,,
Raíssa Evellyn Santana de Oliveira,28/03/2012,,,,,
Ana Beatriz Rebouças da Conceição,17/05/2011,,,,,
Breno Magno Baltazar da Silveira,29/03/2011,,,,,
Davi de Jesus Santos,21/05/2011,,,,,
Douglas Vaz dos Santos,27/05/2011,,,,,
Fernanda Lins Ribeiro dos Santos,14/08/2010,,,,,
Lara Fábia Oliveira Correia,13/11/2010,,,,,
Lucas Souza de Albuquerque,23/10/2010,,,,,
Luiz Fernando Bina dos Santos,14/03/2011,,,,,
Maria Eduarda Pereira Esquivel,22/01/2011,,,,,
Mariane Medeiros Mariano,10/07/2011,,,,,
Pedro Guilherme Santos Paim,22/11/2010,,,,,
Rayane Oliveira Souza,21/04/2011 ,,,,,
Rebeca Monteiro Silva,18/05/2010,,,,,
Samuel Ferreira Duarte,27/03/2011,,,,,
Abraão Yuri Dantas Cardoso,01/12/2010,,,,,
Adriene Ferreira Paranaguá,10/03/2011,,,,,
Ana Beatriz Santana Santos,13/03/2011,,,,,
Ayanne dos Anjos Santos,14/09/2010,,,,,
Emilly Vitória Rosa Vilas Boas,04/08/2010,,,,,
Felipe Cerqueira Neri,15/02/2011,,,,,
Isabella Cristina Santos de Souza Reis,24/10/2010,,,,,
Isac Meireles Alves da Silva,08/09/2010,,,,,
Islaine Ribeiro Santana,18/04/2011,,,,,
 João Victor Almeida da Cruz Souza,24/02/2011,,,,,
Jônatas Silva dos Santos,18/04/2010,,,,,
Júlia Eduarda Santos Silva,25/04/2011,,,,,
Júlia Soares dos Santos,09/02/2011,,,,,
Maria Clara Alves Santana,06/08/2011,,,,,
Paulo Henrique dos Santos Sousa,20/01/2011,,,,,
Talita Beatriz Fraga de Lima,23/02/2011,,,,,
Thianne Luize da Silva Lima,19/12/2010,,,,,
Carlos Eduardo dos Santos Santana,19/11/2008,,,,,
Carlos Miguel Santos da Fé,21/03/2010,,,,,
Eduarda da Silva Lopes,29/05/2010,,,,,
Emilie Oliveira Freitas,15/07/2010,,,,,
Enzo Santos Conceição,03/11/2009,,,,,
Francyne Souza Brandão,31/012/2009 ,,,,,
Halysson Christian de Melo Miranda,11/09/2009,,,,,
Hilane Teles de Miranda,10/07/09,,,,,
Ivone Mota de Sena,09/07/2010,,,,,
Jéssica dos Santos de Jesus,05/04/2010,,,,,
Júlya de Jesus Santana,07/02/2010,,,,,
Letícia Bulcão Kayanoki,25/03/2010,,,,,
Luiz Felipe Souza Santos,15/11/09,,,,,
Lucas Santana de Oliveira,30/12/2009,,,,,
Maria Luíza Carvalho Prata,15/05/2010,,,,,
Willian dos Santos Ferreira,17/09/2009,,,,,
Yasmin Silva dos Santos,21/09/2009,,,,,
Adônis Gabriel Freitas dos Santos,27/02/2009,,,,,
Eduardo Filipe Carneiro Sampaio Santos,26/07/2009,,,,,
Emmanuel da Silva dos Santos,22/03/2008,,,,,
Juliana de Barros Rocha,06/07/2009,,,,,
Matheus Oliveira de Lima,17/03/2009 ,,,,,
Mikaelle Sales Alves dos Santos,10/02/2009 ,,,,,
Pedro Henrique Tavares Cardoso,02/04/2009,,,,,
Taidra Iorrani da Silva Ferreira,22/11/2008,,,,,
Tainara Pinheiro dos Santos,08/07/2008,,,,,
Adriano Ribeiro Novais Costa,19/07/2006,,,,,
Ágatha de Jesus Freitas,12/08/2006,,,,,
Alex Santos de Jesus,12/11/2007,,,,,
Ana Clara Monteiro Angelim Barbosa,20/09/2007,,,,,
Caique dos Santos Silva,15/11/2007,,,,,
Êmile Alice da Silva Cordeiro,11/12/05,,,,,
Esther Oliveira de Lima,16/02/2008,,,,,
Igor de Jesus Ferreira,09/11/2007,,,,,
Ingrid Germano Pereira,30/01/2008,,,,,
Kauã Silva Santos Barbosa,02/03/2008,,,,,
Kauan Souza de Albuquerque,19/09/2006,,,,,
Larissa Fagundes Santos de Lima,17/02/2008,,,,,
Luana Ayala Ribeiro Sousa,17/05/2007,,,,,
Lucas Santos Bispo da Conceição,23/08/2007,,,,,
Paulo César Cardoso Lopes,20/11/2007,,,,,
Rafael Pereira Barbosa Santos,18/03/2008,,,,,
Robert da Silva Borges,03/08/2006,,,,,
Silas Morais dos Santos,28/11/2006,,,,,
Tony Vítor Nascimento de Lima,20/04/2008,,,,,
Verena Evellyn Barros Pereira,16/02/2008,,,,,
Ana Victória Alves Doarte,12/01/2007,,,,,
Átila Thiago dos Santos Oliveira,13/03/2006,,,,,
Bernardo Curvelo Barbosa,26/07/2006,,,,,
Caio Henrique Nascimento dos Santos,14/09/2006,,,,,
Cristian Araújo Lobo,20/02/2007,,,,,
David Rian Bonifacio Conceição,30/07/2005,,,,,
Elaine da Conceição de Jesus,19/05/2004,,,,,
Emanuelle Cristina Teles da Silva,09/01/2007,,,,,
Estefane Ribeiro dos Santos,18/07/2005,,,,,
Genival Olavo da Silva Santos,05/03/2007,,,,,
Jorge Tavares da Silva Filho,10/01/2007,,,,,
Lucas Silva de Oliveira,18/02/2007,,,,,
Maria Clarice Santana dos Santos,21/12/2006,,,,,
Maria Eduarda dos Santos Ferreira,22/06/2004,,,,,
Micael de Jesus Espírito Santo,18/01/2007,,,,,
Samuel Almeida do Carmo,22/08/2006,,,,,
Yasmin Cruz de Souza,19/03/2007,,,,,
Ana Gisela Barreto Tavares,19/09/2005,,,,,
Anderson dos Santos Santana,06/04/2003,,,,,
Andre Enzo Matos Nagy,22/07/2005,,,,,
Cauan Silva de Jesus Bispo,03/06/2006,,,,,
Emanuelle de Souza Gomes Lopes,11/12/2006,,,,,
Graciele de Souza Santos,12/05/2006,,,,,
Ingrid Bispo Costa,27/09/2005,,,,,
José Felipe Matos Santos,08/06/2004,,,,,
José Hygor Alves da Cruz,24/03/2006,,,,,
Larrire Costa Pocino dos Santos,12/01/2006 ,,,,,
Leonardo Santiago Vale,04/04/2005 ,,,,,
Marcus Cleiton Lima Alves,28/04/2005,,,,,
Natália da Silva Nascimento,19/09/2005,,,,,
Paulo Rian Oliveira Correia,08/10/2003,,,,,
Ryan Santos da Silva,28/11/2005,,,,,
Amanda Silva Brandão,08/05/2005,,,,,
Ana Caroline Pinto Baltazar da Silveira,10/11/2004,,,,,
Antonio Carlos Araújo de Sousa,29/03/2005 ,,,,,
Eduardo Ribeiro Mendonça Carneiro,22/01/2005,,,,,
Francielle Brito Barbosa,21/07/2005,,,,,
João Vítor Silva Lopes,06/03/2004,,,,,
Luana Michele Cruz Santos,20/04/2005,,,,,
Cauan dos Santos Silva,27/02/2003,,,,,
Eduarda Damasceno Barbosa Fernandes,26/03/2003,,,,,
João Pedro Alves de Jesus,07/05/2003,,,,,
Kauan da Silva de Morais,17/09/2004 ,,,,,
Maria Clara Barros Pereira,16/02/2004 ,,,,,
Thiago Santana dos Santos,19/02/2003,,,,,
